-------------------------------------------------------------------------------
Test set: com.folcademy.myfirstapi.MyFirstApiApplicationTests
-------------------------------------------------------------------------------
Tests run: 1, Failures: 0, Errors: 0, Skipped: 0, Time elapsed: 4.738 s - in com.folcademy.myfirstapi.MyFirstApiApplicationTests
